[
  {
    "uid": 470340704,
    "first_name": "Khiro",
    "last_name": "Khomma",
    "age": "2018-01-11",
    "ava": "https://pp.userapi.com/c841233/v841233129/5f1a4/roVBYn5wCSo.jpg",
    "sex": 2,
    "photos": [
      "https://pp.userapi.com/c841233/v841233129/5f19a/QAgI5Aa53aw.jpg",
      "https://pp.userapi.com/c841638/v841638129/57e38/Bi7jdzuvMkk.jpg",
      "https://pp.userapi.com/c841638/v841638129/57e2e/cZWK1d2Xk0Y.jpg",
      "https://pp.userapi.com/c841638/v841638129/57e24/2aSiw-F8lWA.jpg",
      "https://pp.userapi.com/c841638/v841638129/57e1a/hP4eAJGSrtg.jpg"
    ],
    "email": "470340704@dating.com"
  },
  {
    "uid": 470910106,
    "first_name": "Eugene",
    "last_name": "Amoroso",
    "age": "1986-06-05",
    "ava": "https://pp.userapi.com/c841525/v841525336/61a85/MIRz7QaF-60.jpg",
    "sex": 2,
    "photos": [
      "https://pp.userapi.com/c840421/v840421930/4a6b5/ndXPXyCBIaI.jpg",
      "https://pp.userapi.com/c622631/v622631396/125e9/YJ2C8U2VMFM.jpg",
      "https://pp.userapi.com/c841123/v841123930/6351e/rIyrxXLQoos.jpg",
      "https://pp.userapi.com/c836637/v836637463/58a3b/3eX_R5aPJpo.jpg"
    ],
    "email": "470910106@dating.com"
  },
  {
    "uid": 470918692,
    "first_name": "Stas",
    "last_name": "Volkov",
    "age": "1990-07-18",
    "ava": "https://pp.userapi.com/c834201/v834201306/a0ac1/-cEY7EFCIVU.jpg",
    "sex": 2,
    "photos": [
      "https://pp.userapi.com/c840426/v840426306/5116a/VbMvfrN2iCY.jpg",
      "https://pp.userapi.com/c831308/v831308306/5e3a3/BLYeKZD60Y8.jpg",
      "https://pp.userapi.com/c831308/v831308306/5e378/UG2CoR0yi7k.jpg",
      "https://pp.userapi.com/c834201/v834201306/a0ab9/Nt5cQZkDRSk.jpg"
    ],
    "email": "470918692@dating.com"
  },
  {
    "uid": 470220498,
    "first_name": "Erik",
    "last_name": "Son",
    "age": "1996-04-21",
    "ava": "https://pp.userapi.com/c824500/v824500663/9de41/hsaPJ39fob0.jpg",
    "sex": 2,
    "photos": [
      "https://pp.userapi.com/c841336/v841336560/66c45/5-BuLEyfxQM.jpg",
      "https://pp.userapi.com/c840723/v840723560/50930/jhRhnQSQDF8.jpg",
      "https://pp.userapi.com/c841339/v841339560/5cc09/EUr0fUbYuaI.jpg",
      "https://pp.userapi.com/c841421/v841421560/65bf5/JZk_h7Ti7JI.jpg",
      "https://pp.userapi.com/c824500/v824500663/9de36/7-0_-bd2_4o.jpg"
    ],
    "email": "470220498@dating.com"
  },
  {
    "uid": 470909881,
    "first_name": "Dastan",
    "last_name": "Mirzaev",
    "age": "1995-12-23",
    "ava": "https://pp.userapi.com/c841628/v841628060/5f8f8/TD5Gflm7Q0s.jpg",
    "sex": 2,
    "photos": [
      "https://pp.userapi.com/c841628/v841628060/5f8f3/uOSzf4W2HYs.jpg",
      "https://pp.userapi.com/c841525/v841525060/5bf77/v84alTh87UY.jpg",
      "https://pp.userapi.com/c834202/v834202060/a0d1e/s3pMkOLit2c.jpg"
    ],
    "email": "470909881@dating.com"
  },
  {
    "uid": 470869310,
    "first_name": "Mikhail",
    "last_name": "Turov",
    "age": "1991-06-09",
    "ava": "https://pp.userapi.com/c840629/v840629095/4d0b0/LImadb-papo.jpg",
    "sex": 2,
    "photos": [
      "https://pp.userapi.com/c840629/v840629095/4d0a9/mq_ys35Wcys.jpg",
      "https://pp.userapi.com/c841325/v841325095/596e7/MNUhs9gqcIo.jpg",
      "https://pp.userapi.com/c840133/v840133095/6befb/Jv4bqjvdhtk.jpg",
      "https://pp.userapi.com/c841122/v841122095/5f557/vKfbWeNdld4.jpg",
      "https://pp.userapi.com/c830309/v830309095/62548/R_V3aG9Ai5c.jpg",
      "https://pp.userapi.com/c834204/v834204095/a5f2c/DTFZaRMxvE4.jpg",
      "https://pp.userapi.com/c830309/v830309095/62541/NBfM9iJt0qc.jpg",
      "https://pp.userapi.com/c840529/v840529095/4c437/1-VpYKSbPEs.jpg"
    ],
    "email": "470869310@dating.com"
  },
  {
    "uid": 470006395,
    "first_name": "Alex",
    "last_name": "Booss",
    "age": "1991-01-07",
    "ava": "https://pp.userapi.com/c830708/v830708901/550de/dMAsLJolzFs.jpg",
    "sex": 2,
    "photos": [
      "https://pp.userapi.com/c830708/v830708901/550d5/ZwZzpPAj9UQ.jpg",
      "https://pp.userapi.com/c840724/v840724382/4575b/qsxFGiO1TCc.jpg",
      "https://pp.userapi.com/c834101/v834101178/99d45/FOcaQMx5dME.jpg",
      "https://pp.userapi.com/c834201/v834201178/954ba/QYJGsrCRyR8.jpg",
      "https://pp.userapi.com/c841135/v841135178/5ce61/cr51r6zZxH8.jpg"
    ],
    "email": "470006395@dating.com"
  },
  {
    "uid": 470910647,
    "first_name": "Andrel",
    "last_name": "Tlgrov",
    "age": "1995-03-29",
    "ava": "https://pp.userapi.com/c841125/v841125976/627bb/WgjBc0xpprI.jpg",
    "sex": 2,
    "photos": [
      "https://pp.userapi.com/c841125/v841125976/627b1/EqeVG_tOzPU.jpg",
      "https://pp.userapi.com/c841429/v841429976/64811/yeAXXwl2zos.jpg",
      "https://pp.userapi.com/c841121/v841121976/60f81/xi_3K_TvEMo.jpg",
      "https://pp.userapi.com/c840739/v840739976/4a50d/W5n5hFDBKyw.jpg",
      "https://pp.userapi.com/c824604/v824604976/a5d38/jV1SUIVYSrE.jpg",
      "https://pp.userapi.com/c840329/v840329976/4dcc3/lp-w4DhPczc.jpg",
      "https://pp.userapi.com/c840327/v840327976/4dc50/HMiV3vT2HJQ.jpg",
      "https://pp.userapi.com/c840520/v840520976/4d145/lAGdsls_G3E.jpg"
    ],
    "email": "470910647@dating.com"
  },
  {
    "uid": 469960274,
    "first_name": "Antony",
    "last_name": "Weeks",
    "age": "1981-01-04",
    "ava": "https://pp.userapi.com/c840228/v840228728/58715/rVxvdY6S7Fk.jpg",
    "sex": 2,
    "photos": [
      "https://pp.userapi.com/c840125/v840125728/6deae/QpozkvovDNw.jpg",
      "https://pp.userapi.com/c840125/v840125728/6dea5/RLlx0ledzd0.jpg",
      "https://pp.userapi.com/c824201/v824201728/9800e/KWHLhmJ3EmQ.jpg",
      "https://pp.userapi.com/c824201/v824201728/98005/3G3k9XIwIG4.jpg",
      "https://pp.userapi.com/c824201/v824201728/97ffc/VhWlBQFBh5E.jpg",
      "https://pp.userapi.com/c830401/v830401728/3f895/irBUaZDf2GY.jpg",
      "https://pp.userapi.com/c830401/v830401728/3f88c/3GReiCNKbqI.jpg",
      "https://pp.userapi.com/c830401/v830401728/3f883/A6cpArb-5JQ.jpg"
    ],
    "email": "469960274@dating.com"
  },
  {
    "uid": 469746260,
    "first_name": "Dmitry",
    "last_name": "Klyuchnikov",
    "age": "1990-02-26",
    "ava": "https://pp.userapi.com/c841638/v841638053/5bd96/Pfigepd2ikM.jpg",
    "sex": 2,
    "photos": [
      "https://pp.userapi.com/c841638/v841638053/5bd8c/e9dgdMKgW1I.jpg",
      "https://pp.userapi.com/c834400/v834400053/96be1/OQTnR0-NQ54.jpg",
      "https://pp.userapi.com/c831108/v831108053/476c4/V489-VHaYv0.jpg",
      "https://pp.userapi.com/c840135/v840135078/68cc1/AR85nhF0cPA.jpg",
      "https://pp.userapi.com/c841638/v841638078/5b313/6n9nvNBBPug.jpg",
      "https://pp.userapi.com/c840432/v840432094/49401/h1Yk03MAVLY.jpg",
      "https://pp.userapi.com/c841134/v841134094/61d97/Y0E2d0w5vTw.jpg",
      "https://pp.userapi.com/c831109/v831109094/5a84b/Z6o12mXOD1Q.jpg"
    ],
    "email": "469746260@dating.com"
  },
  {
    "uid": 470874433,
    "first_name": "Viktor",
    "last_name": "Mironyuk",
    "age": "1988-01-17",
    "ava": "https://pp.userapi.com/c841121/v841121831/62c26/FkXr3Ze-wRI.jpg",
    "sex": 2,
    "photos": [
      "https://pp.userapi.com/c841121/v841121831/62b61/G36bSS4NA5Q.jpg",
      "https://pp.userapi.com/c841121/v841121831/62c1c/dm5_JrdAJmo.jpg",
      "https://pp.userapi.com/c841121/v841121831/62c13/0ozGBjEHQaE.jpg",
      "https://pp.userapi.com/c841121/v841121831/62c0a/EoCVg1HPMTI.jpg",
      "https://pp.userapi.com/c841121/v841121831/62c01/I1iSzHLJMBY.jpg",
      "https://pp.userapi.com/c841121/v841121831/62bf8/yCooA3y_MLc.jpg",
      "https://pp.userapi.com/c841121/v841121831/62bef/4_Ys4BqXSEQ.jpg",
      "https://pp.userapi.com/c841121/v841121831/62be6/Rbmb-XWmVI8.jpg"
    ],
    "email": "470874433@dating.com"
  },
  {
    "uid": 469750720,
    "first_name": "Shaun",
    "last_name": "Tian",
    "age": "1997-09-09",
    "ava": "https://pp.userapi.com/c841034/v841034941/6c56a/7WqZlwlksoc.jpg",
    "sex": 2,
    "photos": [
      "https://pp.userapi.com/c834102/v834102941/9480b/the7FsRXFn8.jpg",
      "https://pp.userapi.com/c840423/v840423941/4890e/3VIBKIe2-WE.jpg",
      "https://pp.userapi.com/c841021/v841021941/62528/pAJmsN0EJu8.jpg",
      "https://pp.userapi.com/c841034/v841034941/6c563/V4P0kmwahYA.jpg",
      "https://pp.userapi.com/c830508/v830508941/582ae/aA6ZUhm4gDk.jpg",
      "https://pp.userapi.com/c824501/v824501941/93dbf/GQflN7c2HQw.jpg",
      "https://pp.userapi.com/c830509/v830509941/5651b/CY57dsV6Z68.jpg",
      "https://pp.userapi.com/c841227/v841227941/5f7ea/TmZqwmf2XI0.jpg"
    ],
    "email": "469750720@dating.com"
  },
  {
    "uid": 470718385,
    "first_name": "Kelly",
    "last_name": "Jacobs",
    "age": "1978-06-28",
    "ava": "https://pp.userapi.com/c840328/v840328217/4b282/d2A3U8vNG-I.jpg",
    "sex": 2,
    "photos": [
      "https://pp.userapi.com/c841427/v841427217/61a46/MJV4EdS_e7o.jpg",
      "https://pp.userapi.com/c841427/v841427217/61a3f/vy3wCdEZiTk.jpg",
      "https://pp.userapi.com/c841426/v841426217/65273/nOLuZq0DFio.jpg",
      "https://pp.userapi.com/c841426/v841426217/6526a/Scz-5c8F_kM.jpg",
      "https://pp.userapi.com/c841426/v841426217/65261/F_sEQZ1ABrI.jpg",
      "https://pp.userapi.com/c840328/v840328217/4b278/ifZyPFylv4c.jpg"
    ],
    "email": "470718385@dating.com"
  },
  {
    "uid": 470715351,
    "first_name": "Hanalei",
    "last_name": "Vacation",
    "age": "1995-02-01",
    "ava": "https://pp.userapi.com/c834300/v834300385/a1deb/RQl0lUJ-fxI.jpg",
    "sex": 2,
    "photos": [
      "https://pp.userapi.com/c834300/v834300385/a1de0/1paUIGXV5SI.jpg",
      "https://pp.userapi.com/c841425/v841425836/606b9/py7ZKRGjPJM.jpg",
      "https://pp.userapi.com/c841425/v841425836/606b1/SMhgnsk-ukU.jpg",
      "https://pp.userapi.com/c841425/v841425836/606aa/AJ09-2tckds.jpg",
      "https://pp.userapi.com/c841425/v841425836/606a3/5q61JpBcL30.jpg",
      "https://pp.userapi.com/c841438/v841438836/5edb3/frMvIoq7p2k.jpg"
    ],
    "email": "470715351@dating.com"
  },
  {
    "uid": 470754772,
    "first_name": "Roma",
    "last_name": "Stasyuk",
    "age": "1999-03-24",
    "ava": "https://pp.userapi.com/c830208/v830208423/5f1df/ygVZIaePKDQ.jpg",
    "sex": 2,
    "photos": [
      "https://pp.userapi.com/c840628/v840628423/4b32f/tHvOITT5_j0.jpg",
      "https://pp.userapi.com/c830409/v830409423/602d2/_s6LNWeCfoI.jpg",
      "https://pp.userapi.com/c621513/v621513423/62556/Wl7pAlr2MWU.jpg",
      "https://pp.userapi.com/c830208/v830208423/5f1d7/37-ssyfCpaw.jpg"
    ],
    "email": "470754772@dating.com"
  },
  {
    "uid": 470904186,
    "first_name": "Sergey",
    "last_name": "Frolov",
    "age": "1994-01-07",
    "ava": "https://pp.userapi.com/c834400/v834400079/a306e/wDH3WmBOPRE.jpg",
    "sex": 2,
    "photos": [
      "https://pp.userapi.com/c824603/v824603696/9d941/l879mFmu4Yg.jpg",
      "https://pp.userapi.com/c824603/v824603696/9d937/2YaMbMJx9JE.jpg",
      "https://pp.userapi.com/c824603/v824603696/9d92d/Mh1EmR5q47c.jpg",
      "https://pp.userapi.com/c824603/v824603696/9d919/dsNb9xuWoTA.jpg",
      "https://pp.userapi.com/c834400/v834400079/a3064/9AL9mF2oWrw.jpg"
    ],
    "email": "470904186@dating.com"
  },
  {
    "uid": 470820790,
    "first_name": "Beto",
    "last_name": "Mr",
    "age": "1990-12-09",
    "ava": "https://pp.userapi.com/c834201/v834201849/a1857/5GI1y0YWOvo.jpg",
    "sex": 2,
    "photos": [
      "https://pp.userapi.com/c834201/v834201849/a184e/niBPGuv3ehw.jpg",
      "https://pp.userapi.com/c840633/v840633849/4dac1/HEtulM_YhL0.jpg",
      "https://pp.userapi.com/c840427/v840427849/4ba50/1mtiHiqxD_A.jpg"
    ],
    "email": "470820790@dating.com"
  },
  {
    "uid": 470916806,
    "first_name": "Shaxrux",
    "last_name": "Qalandarov",
    "age": "1997-02-08",
    "ava": "https://pp.userapi.com/c840230/v840230271/7221c/HnVrMlE0mHg.jpg",
    "sex": 2,
    "photos": [
      "https://pp.userapi.com/c840230/v840230271/72215/dMiklpZ3Hbo.jpg",
      "https://pp.userapi.com/c840130/v840130271/6cbad/OuNeUJbvXf8.jpg",
      "https://pp.userapi.com/c840422/v840422271/4db77/GawV453HxX0.jpg",
      "https://pp.userapi.com/c841432/v841432271/63461/dJuRwum7j4A.jpg",
      "https://pp.userapi.com/c840320/v840320271/4c0d6/7gHqtEF9eUs.jpg",
      "https://pp.userapi.com/c841125/v841125271/630d4/Yh6z30IvPZk.jpg",
      "https://pp.userapi.com/c841537/v841537271/61dd1/bF2aRi2gw6k.jpg",
      "https://pp.userapi.com/c834300/v834300271/a197f/rBar8cVjz4s.jpg"
    ],
    "email": "470916806@dating.com"
  },
  {
    "uid": 470782141,
    "first_name": "Mikhail",
    "last_name": "Baranov",
    "age": "1987-11-30",
    "ava": "https://pp.userapi.com/c831108/v831108204/53668/Wlz32QVVgeY.jpg",
    "sex": 2,
    "photos": [
      "https://pp.userapi.com/c840628/v840628204/4a50a/4Cj7T2hUBJc.jpg",
      "https://pp.userapi.com/c840628/v840628204/4a501/EbT6rlhegVc.jpg",
      "https://pp.userapi.com/c840628/v840628204/4a4f8/eq365XKpNe4.jpg",
      "https://pp.userapi.com/c840628/v840628204/4a4ef/Ab1CutU5x2k.jpg",
      "https://pp.userapi.com/c841631/v841631204/6169e/o05_dhpSvIs.jpg",
      "https://pp.userapi.com/c830308/v830308204/5e334/plaMejBDQgM.jpg",
      "https://pp.userapi.com/c621701/v621701204/62c0c/LM0i0zA0gVs.jpg",
      "https://pp.userapi.com/c840727/v840727204/4d5c3/XYzBovNhY_E.jpg"
    ],
    "email": "470782141@dating.com"
  },
  {
    "uid": 470913238,
    "first_name": "Oleg",
    "last_name": "Baitov",
    "age": "1981-10-31",
    "ava": "https://pp.userapi.com/c840721/v840721590/4b23c/fWYdXHY2qNg.jpg",
    "sex": 2,
    "photos": [
      "https://pp.userapi.com/c841020/v841020133/65327/jqwnyTkkNSQ.jpg",
      "https://pp.userapi.com/c841020/v841020133/6531d/DqD7pOvtmRk.jpg",
      "https://pp.userapi.com/c841020/v841020133/65313/p20bBAvNzas.jpg",
      "https://pp.userapi.com/c840238/v840238133/6fa4b/_ECRFXBDnz8.jpg",
      "https://pp.userapi.com/c840238/v840238133/6fa41/QY8N3lBtTcQ.jpg",
      "https://pp.userapi.com/c840238/v840238133/6fa37/KVxrv4ZyYpE.jpg",
      "https://pp.userapi.com/c840639/v840639590/4d93c/YZmdDBkTgpQ.jpg",
      "https://pp.userapi.com/c840721/v840721590/4b233/UECgu09MMSk.jpg"
    ],
    "email": "470913238@dating.com"
  },
  {
    "uid": 470911978,
    "first_name": "Dmitriy",
    "last_name": "Pokosenko",
    "age": "1987-02-12",
    "ava": "https://pp.userapi.com/c824502/v824502189/9404e/gqHYKaIicY0.jpg",
    "sex": 2,
    "photos": [
      "https://pp.userapi.com/c830408/v830408189/62801/P--BMMQE6T8.jpg",
      "https://pp.userapi.com/c824410/v824410189/9ecc6/sY2nPZ38IQo.jpg",
      "https://pp.userapi.com/c824600/v824600189/a0085/OY9iN9d-Q0c.jpg",
      "https://pp.userapi.com/c840336/v840336189/4c798/ibaQ00YfOIo.jpg",
      "https://pp.userapi.com/c834404/v834404189/a434e/NsNM5seYAQM.jpg",
      "https://pp.userapi.com/c840339/v840339189/4c802/KOgm2AqSPV8.jpg",
      "https://pp.userapi.com/c824502/v824502189/94045/S5UU-wQfljA.jpg"
    ],
    "email": "470911978@dating.com"
  },
  {
    "uid": 469224305,
    "first_name": "Kostya",
    "last_name": "Semyonov",
    "age": "2018-01-11",
    "ava": "https://pp.userapi.com/c830209/v830209514/573a4/YzvQsrSIuAQ.jpg",
    "sex": 2,
    "photos": [
      "https://pp.userapi.com/c830209/v830209514/5739b/PU6yPSKJ1Nk.jpg",
      "https://pp.userapi.com/c840330/v840330514/48de9/hWEOi8SQykU.jpg",
      "https://pp.userapi.com/c840321/v840321514/49825/g03LXY1evMM.jpg",
      "https://pp.userapi.com/c840625/v840625514/47f0a/hG0C6slkIrI.jpg"
    ],
    "email": "469224305@dating.com"
  },
  {
    "uid": 470897615,
    "first_name": "Valery",
    "last_name": "Lyubimov",
    "age": "1991-01-15",
    "ava": "https://pp.userapi.com/c841137/v841137972/63eb9/BAnA32gXIn8.jpg",
    "sex": 2,
    "photos": [
      "https://pp.userapi.com/c841235/v841235972/5dfc2/-qYxQB1U8K8.jpg",
      "https://pp.userapi.com/c830709/v830709972/58bee/8YLdWxghKp4.jpg",
      "https://pp.userapi.com/c841530/v841530972/66141/PwqFJeli5z8.jpg",
      "https://pp.userapi.com/c841137/v841137972/63eb3/PmVSRgY6viY.jpg"
    ],
    "email": "470897615@dating.com"
  },
  {
    "uid": 470834414,
    "first_name": "Ruddock",
    "last_name": "Grose",
    "age": "1961-02-12",
    "ava": "https://pp.userapi.com/c841526/v841526704/6cb76/WjOajT3J9CY.jpg",
    "sex": 2,
    "photos": [
      "https://pp.userapi.com/c841235/v841235704/6df7b/MapA4X91X3w.jpg",
      "https://pp.userapi.com/c841232/v841232704/7501a/XLNZLl465Gk.jpg",
      "https://pp.userapi.com/c840337/v840337704/4b228/5vz-3oATrsA.jpg",
      "https://pp.userapi.com/c841526/v841526704/6cb6c/UpdB6efejT8.jpg",
      "https://pp.userapi.com/c824602/v824602704/96891/TUx5YlphZe0.jpg"
    ],
    "email": "470834414@dating.com"
  },
  {
    "uid": 470913055,
    "first_name": "Haris",
    "last_name": "Scott",
    "age": "1966-12-10",
    "ava": "https://pp.userapi.com/c824504/v824504026/9b06c/-BTS5SvEDMo.jpg",
    "sex": 2,
    "photos": [
      "https://pp.userapi.com/c841028/v841028026/64620/YEmBJ6eNCzQ.jpg",
      "https://pp.userapi.com/c840337/v840337026/4e4ea/gO_DGgYPKwc.jpg",
      "https://pp.userapi.com/c834204/v834204026/9e854/dVUD_gywu-w.jpg",
      "https://pp.userapi.com/c834201/v834201026/a0d6c/MrkQOzZSyoA.jpg",
      "https://pp.userapi.com/c840136/v840136026/6d001/Opl6PtTnxq0.jpg",
      "https://pp.userapi.com/c840136/v840136026/6cff8/-ZtL0DOvQGI.jpg",
      "https://pp.userapi.com/c840136/v840136026/6cff0/bRGqomKwX-8.jpg",
      "https://pp.userapi.com/c824504/v824504026/9b066/Zk_Pg6TR4J8.jpg"
    ],
    "email": "470913055@dating.com"
  },
  {
    "uid": 470920493,
    "first_name": "Gleb",
    "last_name": "Viktorovich",
    "age": "1982-09-27",
    "ava": "https://pp.userapi.com/c840732/v840732639/4fb31/P1RGTH9CvXg.jpg",
    "sex": 2,
    "photos": [
      "https://pp.userapi.com/c831508/v831508639/64427/NtB-CF80zYw.jpg",
      "https://pp.userapi.com/c831508/v831508639/6441d/a3IdIX0jsG4.jpg",
      "https://pp.userapi.com/c831508/v831508639/64413/X1Wjq7fXMyQ.jpg",
      "https://pp.userapi.com/c831508/v831508639/64409/i_sR40x_Q4w.jpg",
      "https://pp.userapi.com/c831508/v831508639/643ff/XWL1PeKVmM8.jpg",
      "https://pp.userapi.com/c831508/v831508639/643f5/MFo_YBbAsP0.jpg",
      "https://pp.userapi.com/c831508/v831508639/643eb/QhPRKl5g1Rw.jpg",
      "https://pp.userapi.com/c831508/v831508639/643e1/6LnkhEx7qX4.jpg"
    ],
    "email": "470920493@dating.com"
  },
  {
    "uid": 469958020,
    "first_name": "Donatas",
    "last_name": "Poskevicius",
    "age": "1983-12-31",
    "ava": "https://pp.userapi.com/c841531/v841531548/62b45/VCKpDoiKOL0.jpg",
    "sex": 2,
    "photos": [
      "https://pp.userapi.com/c841531/v841531548/62b3d/gqA_gy0rnsg.jpg",
      "https://pp.userapi.com/c841226/v841226046/5fd9e/dROcRM4HU4s.jpg",
      "https://pp.userapi.com/c830401/v830401046/41145/cwKaVyGaBHw.jpg",
      "https://pp.userapi.com/c830409/v830409046/5d0dc/Pop1EjSFq84.jpg",
      "https://pp.userapi.com/c841620/v841620046/5fa39/l7XvAaU3g40.jpg",
      "https://pp.userapi.com/c824411/v824411046/986a0/2nLUEQUylJg.jpg",
      "https://pp.userapi.com/c830401/v830401046/4113b/Uh3CREppu9Y.jpg",
      "https://pp.userapi.com/c841023/v841023046/65ad9/zlTUGLhPoPg.jpg"
    ],
    "email": "469958020@dating.com"
  },
  {
    "uid": 470849069,
    "first_name": "Roma",
    "last_name": "Roman",
    "age": "1987-03-23",
    "ava": "https://pp.userapi.com/c840735/v840735420/4d45b/wBvDTxOX7W8.jpg",
    "sex": 2,
    "photos": [
      "https://pp.userapi.com/c840735/v840735420/4d451/qvgX2WoL_e0.jpg",
      "https://pp.userapi.com/c831409/v831409420/61b0d/saivvZI3HaI.jpg",
      "https://pp.userapi.com/c841534/v841534420/60faa/I0uocIA0ksY.jpg"
    ],
    "email": "470849069@dating.com"
  },
  {
    "uid": 470727444,
    "first_name": "Dean",
    "last_name": "Winchester",
    "age": "1979-01-24",
    "ava": "https://pp.userapi.com/c841234/v841234866/63b45/p5qCr-hzZbc.jpg",
    "sex": 2,
    "photos": [
      "https://pp.userapi.com/c841234/v841234866/63b3f/5SfnBvO0AEg.jpg",
      "https://pp.userapi.com/c831308/v831308287/5286a/xTc7CUSWtSw.jpg",
      "https://pp.userapi.com/c840635/v840635287/45c99/lEf4k_-91LE.jpg",
      "https://pp.userapi.com/c840635/v840635287/45c92/Rg47EMH5Vzc.jpg",
      "https://pp.userapi.com/c841026/v841026973/6916f/ZS1S3aX8P58.jpg",
      "https://pp.userapi.com/c841026/v841026973/69165/gHz1W4FB3Aw.jpg",
      "https://pp.userapi.com/c830608/v830608658/61179/oYfE13jnvJM.jpg",
      "https://pp.userapi.com/c840028/v840028271/71c6d/cZBmaNFFah0.jpg"
    ],
    "email": "470727444@dating.com"
  },
  {
    "uid": 470743708,
    "first_name": "Pavel Rozhenko",
    "last_name": "Rozhenko",
    "age": "1999-10-02",
    "ava": "https://pp.userapi.com/c621700/v621700524/61547/_WoxWoUIPTU.jpg",
    "sex": 2,
    "photos": [
      "https://pp.userapi.com/c621700/v621700524/6153f/HKiZQc5neyM.jpg",
      "https://pp.userapi.com/c840338/v840338524/51aec/TwUWYnnh39M.jpg",
      "https://pp.userapi.com/c840629/v840629524/4db2e/G_owklibHz4.jpg",
      "https://pp.userapi.com/c841528/v841528524/64257/_sdH4hMGor0.jpg",
      "https://pp.userapi.com/c840731/v840731016/55ea2/TDoH7vEQvYs.jpg"
    ],
    "email": "470743708@dating.com"
  },
  {
    "uid": 470811421,
    "first_name": "Davit",
    "last_name": "Tsindeliani",
    "age": "1985-10-22",
    "ava": "https://pp.userapi.com/c841529/v841529650/60205/V7OFpd_Td2c.jpg",
    "sex": 2,
    "photos": [
      "https://pp.userapi.com/c834302/v834302654/a34ea/qFI4e0fIp9s.jpg",
      "https://pp.userapi.com/c841421/v841421654/5eaec/-sJkSgOli3M.jpg",
      "https://pp.userapi.com/c840222/v840222654/6c500/cRnlZEV1N3g.jpg",
      "https://pp.userapi.com/c831308/v831308654/60643/M4QoMdISkrQ.jpg",
      "https://pp.userapi.com/c831209/v831209654/62456/8F8tq6yFT3I.jpg",
      "https://pp.userapi.com/c830401/v830401654/4914a/7yzmCxE6chk.jpg",
      "https://pp.userapi.com/c841227/v841227654/608b9/-SDIDuiS-Ic.jpg",
      "https://pp.userapi.com/c831309/v831309654/59a49/CWnuy2T9NW0.jpg"
    ],
    "email": "470811421@dating.com"
  },
  {
    "uid": 470858142,
    "first_name": "Kiril",
    "last_name": "Rubanov",
    "age": "1986-04-25",
    "ava": "https://pp.userapi.com/c830509/v830509512/618fe/NvzIIm8fIkM.jpg",
    "sex": 2,
    "photos": [
      "https://pp.userapi.com/c830509/v830509512/618f8/llxL5VRszGY.jpg",
      "https://pp.userapi.com/c841023/v841023512/65e73/rswP8iQxNP4.jpg",
      "https://pp.userapi.com/c841020/v841020512/63731/E2hBJe3EUnA.jpg",
      "https://pp.userapi.com/c841423/v841423512/633c3/1SWFvdPZ6LQ.jpg",
      "https://pp.userapi.com/c840438/v840438512/4d324/nAczgSIpl7M.jpg",
      "https://pp.userapi.com/c841425/v841425512/61d93/HfHjJs6CyvY.jpg",
      "https://pp.userapi.com/c840726/v840726245/4bcda/jaaUy26-GQ0.jpg",
      "https://pp.userapi.com/c831109/v831109245/63c02/2eqPFQrII9g.jpg"
    ],
    "email": "470858142@dating.com"
  },
  {
    "uid": 470912579,
    "first_name": "Lyublyu",
    "last_name": "Kuni",
    "age": "1977-07-01",
    "ava": "https://pp.userapi.com/c830400/v830400955/62bfc/pvWwdTVUoV0.jpg",
    "sex": 2,
    "photos": [
      "https://pp.userapi.com/c618016/v618016599/1a3f0/m8luUUFa3WA.jpg",
      "https://pp.userapi.com/c622625/v622625805/9178/ohNTqaEYW3g.jpg",
      "https://pp.userapi.com/c622625/v622625805/9171/izDfUTk8R9I.jpg",
      "https://pp.userapi.com/c623224/v623224263/9b67/davjxv8qci8.jpg",
      "https://pp.userapi.com/c617326/v617326526/cd75/AJh0ph_wSDo.jpg",
      "https://pp.userapi.com/c841128/v841128918/2bb9c/WBZ9xos68Ek.jpg"
    ],
    "email": "470912579@dating.com"
  },
  {
    "uid": 470735266,
    "first_name": "Pavel",
    "last_name": "Samuraev",
    "age": "1997-04-12",
    "ava": "https://pp.userapi.com/c824204/v824204508/9b4a7/PlptlCgpM_A.jpg",
    "sex": 2,
    "photos": [
      "https://pp.userapi.com/c841422/v841422508/64030/azODHVlKxDc.jpg",
      "https://pp.userapi.com/c840623/v840623508/4a2f5/5jIfKbATxKc.jpg",
      "https://pp.userapi.com/c824204/v824204508/9b4a0/FYtCyH1tRnw.jpg"
    ],
    "email": "470735266@dating.com"
  },
  {
    "uid": 470797623,
    "first_name": "Zheka",
    "last_name": "Zheka",
    "age": "1995-03-27",
    "ava": "https://pp.userapi.com/c830409/v830409144/64915/m_YxHEsAT9k.jpg",
    "sex": 2,
    "photos": [
      "https://pp.userapi.com/c840123/v840123144/6ebc6/PA3ae1aOeL8.jpg",
      "https://pp.userapi.com/c840123/v840123144/6ebbc/uALtlnX68P0.jpg",
      "https://pp.userapi.com/c840123/v840123144/6ebb3/kUAYYfOhhts.jpg",
      "https://pp.userapi.com/c840123/v840123144/6eba9/Yuktc1Aa1C0.jpg",
      "https://pp.userapi.com/c840123/v840123144/6eba0/ckxXVv3V7-0.jpg",
      "https://pp.userapi.com/c840123/v840123144/6eb96/LxYZsEt2pXI.jpg",
      "https://pp.userapi.com/c840123/v840123144/6eb8e/DrwfE91wSy4.jpg",
      "https://pp.userapi.com/c830409/v830409144/6490e/-EXGqr3Bdno.jpg"
    ],
    "email": "470797623@dating.com"
  },
  {
    "uid": 470808595,
    "first_name": "Sergey",
    "last_name": "Repnoy",
    "age": "1988-04-17",
    "ava": "https://pp.userapi.com/c824701/v824701476/97c3d/bhjvZO5VwvY.jpg",
    "sex": 2,
    "photos": [
      "https://pp.userapi.com/c824701/v824701476/97c36/UOs6uhXwxZY.jpg",
      "https://pp.userapi.com/c841335/v841335060/615e2/khtKmsWGZEA.jpg",
      "https://pp.userapi.com/c840726/v840726060/49542/iZP9FA1h_GU.jpg",
      "https://pp.userapi.com/c840726/v840726060/49539/bPIYRVhWM_U.jpg",
      "https://pp.userapi.com/c840726/v840726060/49531/YQU0R9efudE.jpg",
      "https://pp.userapi.com/c840726/v840726060/49528/Yqs4zmjVJTs.jpg",
      "https://pp.userapi.com/c841125/v841125060/62f87/StIgncnRQ3Y.jpg",
      "https://pp.userapi.com/c834303/v834303060/9c64c/K-7CWI07Ta8.jpg"
    ],
    "email": "470808595@dating.com"
  },
  {
    "uid": 470907139,
    "first_name": "No",
    "last_name": "Name",
    "age": "1992-02-03",
    "ava": "https://pp.userapi.com/c840237/v840237732/70a94/jIiAKZXlQa0.jpg",
    "sex": 2,
    "photos": [
      "https://pp.userapi.com/c824503/v824503726/9f5e2/XmQaM03jXqk.jpg",
      "https://pp.userapi.com/c840237/v840237732/70a8e/_U-vs2lWq1M.jpg",
      "https://pp.userapi.com/c840436/v840436732/4a7b2/80HKv_OYO6o.jpg",
      "https://pp.userapi.com/c834404/v834404732/a1443/UqZjZzAgd4c.jpg"
    ],
    "email": "470907139@dating.com"
  },
  {
    "uid": 470903927,
    "first_name": "Ilya",
    "last_name": "Ilya",
    "age": "1993-06-21",
    "ava": "https://pp.userapi.com/c831308/v831308511/5e387/B7HQN9DG10A.jpg",
    "sex": 2,
    "photos": [
      "https://pp.userapi.com/c840138/v840138511/6bac2/bu8lk7NaGF0.jpg",
      "https://pp.userapi.com/c841424/v841424511/61327/_K9CJoFBdZY.jpg",
      "https://pp.userapi.com/c840320/v840320511/4b7b8/sDEt4Ad2gUA.jpg",
      "https://pp.userapi.com/c824502/v824502511/9238c/enGvwMGZxd4.jpg",
      "https://pp.userapi.com/c831308/v831308511/5e37e/jyRaGrK9jSQ.jpg"
    ],
    "email": "470903927@dating.com"
  },
  {
    "uid": 470904948,
    "first_name": "Maxim",
    "last_name": "Foschenkov",
    "age": "1986-10-27",
    "ava": "https://pp.userapi.com/c824409/v824409738/a1129/suJwOsXzK2c.jpg",
    "sex": 2,
    "photos": [
      "https://pp.userapi.com/c834301/v834301738/9bb3c/xoMmXDmWkI0.jpg",
      "https://pp.userapi.com/c834301/v834301738/9bb35/4hFoxfhdRDM.jpg",
      "https://pp.userapi.com/c834301/v834301738/9bb2c/aEW11efYGTA.jpg",
      "https://pp.userapi.com/c834301/v834301738/9bb25/c1A8Pd9qyIc.jpg",
      "https://pp.userapi.com/c834301/v834301738/9bb1e/mtaboOR8sW8.jpg",
      "https://pp.userapi.com/c834301/v834301738/9bb15/t2MYyt1XGhs.jpg",
      "https://pp.userapi.com/c834301/v834301738/9bb0b/xRXP9UYgDhQ.jpg",
      "https://pp.userapi.com/c834301/v834301738/9bb04/KpIdiAwK7RE.jpg"
    ],
    "email": "470904948@dating.com"
  },
  {
    "uid": 470751022,
    "first_name": "Stevens",
    "last_name": "Chris",
    "age": "1966-02-10",
    "ava": "https://pp.userapi.com/c621515/v621515131/681df/U34bJlpMHcg.jpg",
    "sex": 2,
    "photos": [
      "https://pp.userapi.com/c824501/v824501348/9f5a3/Cx_J9e_VBbY.jpg",
      "https://pp.userapi.com/c824501/v824501348/9f59b/xZvgqI98zFg.jpg",
      "https://pp.userapi.com/c824501/v824501348/9f593/pcxf1eg0Vqk.jpg",
      "https://pp.userapi.com/c824501/v824501348/9f573/Tw9qPn3NKUY.jpg",
      "https://pp.userapi.com/c841527/v841527348/63990/25SQVFIZPhs.jpg",
      "https://pp.userapi.com/c841527/v841527348/63988/UZeWsWL3KHM.jpg",
      "https://pp.userapi.com/c621515/v621515131/681d8/PFnN939u0pI.jpg"
    ],
    "email": "470751022@dating.com"
  }
]